<?xml version="1.0" encoding="utf-8"?>
<!-- Generator: Adobe Illustrator 23.0.1, SVG Export Plug-In . SVG Version: 6.00 Build 0)  -->
<svg version="1.1" id="Layer_1" xmlns="http://www.w3.org/2000/svg" xmlns:xlink="http://www.w3.org/1999/xlink" x="0px" y="0px"
	 viewBox="0 0 800 800" style="enable-background:new 0 0 800 800;" xml:space="preserve">
<style type="text/css">
	.st0{fill:#444248;}
	.st1{fill:#8A92A1;}
	.st2{fill:#A9AFBA;}
	.st3{opacity:0.32;fill:#A9AFBA;}
	.st4{fill:#F7B896;}
	.st5{fill:#EF3B3E;}
	.st6{fill:#64739A;}
	.st7{fill:#B0B9CC;}
	.st8{opacity:0.32;fill:#64739A;}
	.st9{opacity:0.55;fill:#C94C3B;}
	.st10{fill:#C8CCD3;}
	.st11{opacity:0.28;fill:#403F45;}
</style>
<g>
	<rect x="108.47" y="462.44" class="st0" width="245.74" height="35.29"/>
	<rect x="382.4" y="462.44" class="st0" width="346.81" height="35.29"/>
	<rect x="539.81" y="338.91" class="st0" width="33.14" height="123.53"/>
	<polygon class="st1" points="572.95,414.63 572.95,417.42 567.38,417.42 546.5,452.14 546.5,391.6 108.47,391.6 108.47,468.56 
		354.21,468.56 354.21,445.6 382.4,445.6 382.4,468.56 536.64,468.56 536.57,468.67 717.59,468.67 723.78,462.44 723.78,414.63 	"/>
	<polygon class="st2" points="561.16,308.3 561.16,462.44 723.78,462.44 723.78,368.86 654.08,308.3 	"/>
	<rect x="561.16" y="384.58" class="st3" width="162.62" height="77.86"/>
	<polygon class="st0" points="592.81,327.41 592.81,373.05 684.22,373.05 643.08,327.41 	"/>
	<path class="st0" d="M611.9,399.24h-5.66c-1.59,0-2.88-0.92-2.88-2.05v-0.04c0-1.13,1.29-2.05,2.88-2.05h5.66
		c1.59,0,2.88,0.92,2.88,2.05v0.04C614.79,398.32,613.49,399.24,611.9,399.24z"/>
	<rect x="709.5" y="408.57" class="st4" width="14.28" height="18.68"/>
	<rect x="709.5" y="435.56" class="st5" width="14.28" height="14.14"/>
	<rect x="108.47" y="291.16" class="st6" width="438.2" height="171.28"/>
	<rect x="127.52" y="308.3" class="st7" width="400.1" height="12.77"/>
	<rect x="108.47" y="384.58" class="st8" width="438.2" height="77.86"/>
	<rect x="108.47" y="432.19" class="st4" width="22.28" height="23.67"/>
	<rect x="108.47" y="462.44" class="st5" width="22.28" height="22.87"/>
	<rect x="108.47" y="443.86" class="st4" width="22.28" height="12"/>
	<rect x="108.47" y="474.05" class="st9" width="22.28" height="11.26"/>
	<g>
		<path class="st0" d="M433.04,448.11c-2.51-0.39-5.07-0.65-7.69-0.65c-2.45,0-4.83,0.23-7.18,0.57c2.28-0.15,4.65-0.24,7.18-0.24
			C428.06,447.79,430.61,447.91,433.04,448.11z"/>
	</g>
	<g>
		<path class="st1" d="M439.75,507.04h6.03c0.01-0.75,0.04-9.56,0.08-10.06c1.3-15.9,15.63-31.74,36.91-31.74
			c19.68,0,35.99,16.33,36.96,32.48c0.01,0.21,0.02,6.46,0.03,9.33h6.1c0.01-2.86,0.03-9.12,0.04-9.33
			c1.25-24.86-18.53-45.41-43.12-45.41c-23.85,0-43.18,19.33-43.18,43.18c0,0.57,0.03,1.13,0.06,1.69
			C439.69,497.61,439.72,506.35,439.75,507.04z"/>
		<g>
			<circle class="st0" cx="482.78" cy="500.97" r="36.85"/>
			<path class="st10" d="M499.47,484.28c9.22,9.22,9.22,24.16,0,33.38c-9.22,9.22-24.16,9.22-33.38,0c-9.22-9.22-9.22-24.16,0-33.38
				C475.31,475.06,490.25,475.06,499.47,484.28z"/>
			<circle class="st0" cx="482.78" cy="500.97" r="7.75"/>
		</g>
		<path class="st11" d="M450.83,509.05c1.03-16.87,15-30.25,32.13-30.25c17.13,0,31.1,13.37,32.13,30.25h3.53
			c0.59-2.61,0.99-5.29,0.99-8.07c0-20.35-16.5-36.85-36.85-36.85c-20.35,0-36.85,16.5-36.85,36.85c0,2.78,0.33,5.48,0.92,8.07
			H450.83z"/>
	</g>
	<g>
		<path class="st1" d="M249.68,507.04h6.03c0.01-0.75,0.04-9.56,0.08-10.06c1.3-15.9,15.63-31.74,36.91-31.74
			c19.68,0,35.99,16.33,36.96,32.48c0.01,0.21,0.02,6.46,0.03,9.33h6.1c0.01-2.86,0.03-9.12,0.04-9.33
			c1.25-24.86-18.53-45.41-43.12-45.41c-23.85,0-43.18,19.33-43.18,43.18c0,0.57,0.03,1.13,0.06,1.69
			C249.62,497.61,249.65,506.35,249.68,507.04z"/>
		<g>
			<circle class="st0" cx="292.7" cy="500.97" r="36.85"/>
			<path class="st10" d="M309.4,484.28c9.22,9.22,9.22,24.16,0,33.38c-9.22,9.22-24.16,9.22-33.38,0c-9.22-9.22-9.22-24.16,0-33.38
				C285.23,475.06,300.18,475.06,309.4,484.28z"/>
			<circle class="st0" cx="292.7" cy="500.97" r="7.75"/>
		</g>
		<path class="st11" d="M260.76,509.05c1.03-16.87,15-30.25,32.13-30.25c17.13,0,31.1,13.37,32.13,30.25h3.53
			c0.59-2.61,0.99-5.29,0.99-8.07c0-20.35-16.5-36.85-36.85-36.85c-20.35,0-36.85,16.5-36.85,36.85c0,2.78,0.33,5.48,0.92,8.07
			H260.76z"/>
	</g>
	<g>
		<path class="st1" d="M147.31,507.04h6.03c0.01-0.75,0.04-9.56,0.08-10.06c1.3-15.9,15.63-31.74,36.91-31.74
			c19.68,0,35.99,16.33,36.96,32.48c0.01,0.21,0.02,6.46,0.03,9.33h6.1c0.01-2.86,0.02-9.12,0.04-9.33
			c1.25-24.86-18.53-45.41-43.12-45.41c-23.85,0-43.18,19.33-43.18,43.18c0,0.57,0.03,1.13,0.06,1.69
			C147.25,497.61,147.28,506.35,147.31,507.04z"/>
		<g>
			<circle class="st0" cx="190.34" cy="500.97" r="36.85"/>
			<path class="st10" d="M207.03,484.28c9.22,9.22,9.22,24.16,0,33.38c-9.22,9.22-24.16,9.22-33.38,0c-9.22-9.22-9.22-24.16,0-33.38
				C182.86,475.06,197.81,475.06,207.03,484.28z"/>
			<circle class="st0" cx="190.34" cy="500.97" r="7.75"/>
		</g>
		<path class="st11" d="M158.39,509.05c1.03-16.87,15-30.25,32.13-30.25s31.1,13.37,32.13,30.25h3.53c0.59-2.61,0.99-5.29,0.99-8.07
			c0-20.35-16.5-36.85-36.85-36.85c-20.35,0-36.85,16.5-36.85,36.85c0,2.78,0.33,5.48,0.92,8.07H158.39z"/>
	</g>
	<g>
		<path class="st1" d="M603.96,507.04H610c0.01-0.75,0.04-9.56,0.08-10.06c1.3-15.9,15.63-31.74,36.91-31.74
			c19.68,0,35.99,16.33,36.96,32.48c0.01,0.21,0.02,6.46,0.03,9.33h6.1c0.01-2.86,0.02-9.12,0.04-9.33
			c1.25-24.86-18.53-45.41-43.12-45.41c-23.85,0-43.18,19.33-43.18,43.18c0,0.57,0.03,1.13,0.06,1.69
			C603.9,497.61,603.93,506.35,603.96,507.04z"/>
		<g>
			<circle class="st0" cx="646.99" cy="500.97" r="36.85"/>
			<path class="st10" d="M663.68,484.28c9.22,9.22,9.22,24.16,0,33.38c-9.22,9.22-24.16,9.22-33.38,0c-9.22-9.22-9.22-24.16,0-33.38
				C639.52,475.06,654.46,475.06,663.68,484.28z"/>
			<circle class="st0" cx="646.99" cy="500.97" r="7.75"/>
		</g>
		<path class="st11" d="M615.04,509.05c1.03-16.87,15-30.25,32.13-30.25s31.1,13.37,32.13,30.25h3.53c0.59-2.61,0.99-5.29,0.99-8.07
			c0-20.35-16.5-36.85-36.85-36.85c-20.35,0-36.85,16.5-36.85,36.85c0,2.78,0.33,5.48,0.92,8.07H615.04z"/>
	</g>
	<g>
		<path class="st0" d="M650.35,448.11c-2.52-0.39-5.07-0.65-7.7-0.65c-2.44,0-4.83,0.23-7.18,0.57c2.28-0.15,4.65-0.24,7.18-0.24
			C645.37,447.79,647.91,447.91,650.35,448.11z"/>
	</g>
</g>
</svg>
